@startuml
left to right direction
skinparam ClassAttributeIconSize 0


class Person {
    +firstName: string
    +lastName: string
    +getFullName(): string
}

class Employee extends Person {
    +getPosition()
    +getSalary()
    +setPosition(position:String)
    +setSalary(salary:Double)
}

class Supplier extends Person {
    +getCredit()
    +getSupplyList()
    +setCredit(credit:Double)
    +setSupplyList(supplyList:ArrayList)
}

class Client extends Person {
    +getClientType()
    +getDiscount()
    +setClientType(clientType:String)
    +setDiscount(discount:Double)
}

abstract class Order {
    +getOrderInfo()
    +getTotalPrice()
}

class ProductOrder extends Order {
    +getProductList()
    +setProductList(productList:ArrayList)
}

class ServiceOrder extends Order {
    +getServiceList()
    +setServiceList(serviceList:ArrayList)
}

class Delivery {
    +getDeliveryInfo()
    +setDeliveryInfo(deliveryInfo:String)
}

class PickupPoint {
    +getPickupInfo()
    +setPickupInfo(pickupInfo:String)
}

class Application {
    -frontend: Frontend
    -backend: Backend
    +run()
}

class Frontend {
    -app: Application
    +mainMenu()
}

class Backend {
    -app: Application
    -database: Database
    +getBackList()
}

class Database {
    -backend: Backend
    +getDataList()
}


Application "1" o.. "1" Frontend
Application "1" o.. "1" Backend
Backend "1" -- "1" Database
Order "1" -- "1" Delivery 
Delivery "1" -- "1" PickupPoint
Employee "1" -- "0..*" Order
Supplier "1" -- "1..*" Order
Client "1" -- "0..*" Order


@enduml
